Reading notes chap 5-7
…
There is 2246 documents and 10473 terms in the data set. We could see the terms in the document with the Terms() function

terms <- Terms(AssociatedPress)
head(terms)

## [1] "aaron"      "abandon"    "abandoned"  "abandoning" "abbott"    
## [6] "abboud"

We can turn the document-term matrix into a tidy data format by using tidy()

tidy_data <- tidy(AssociatedPress)
tidy_data

## # A tibble: 302,031 x 3
##    document term       count
##       <int> <chr>      <dbl>
##  1        1 adding         1
##  2        1 adult          2
##  3        1 ago            1
##  4        1 alcohol        1
##  5        1 allegedly      1
##  6        1 allen          1
##  7        1 apparently     2
##  8        1 appeared       1
##  9        1 arrested       1
## 10        1 assault        1
## # ... with 302,021 more rows

We have three variables in the tidy_data, document, term and count. This is something that I am familiar with. We can perform sentiment analysis or plot as we did in earlier chapter.

ap_sentiments_bing <- tidy_data %>%
  inner_join(get_sentiments("bing"), by = c(term = "word"))
ap_sentiments_bing

## # A tibble: 30,094 x 4
##    document term    count sentiment
##       <int> <chr>   <dbl> <chr>    
##  1        1 assault     1 negative 
##  2        1 complex     1 negative 
##  3        1 death       1 negative 
##  4        1 died        1 negative 
##  5        1 good        2 positive 
##  6        1 illness     1 negative 
##  7        1 killed      2 negative 
##  8        1 like        2 positive 
##  9        1 liked       1 positive 
## 10        1 miracle     1 positive 
## # ... with 30,084 more rows

ap_sentiments_afinn <- tidy_data %>%
  inner_join(get_sentiments("afinn"), by = c(term = "word"))
ap_sentiments_afinn

## # A tibble: 31,665 x 4
##    document term     count value
##       <int> <chr>    <dbl> <dbl>
##  1        1 arrested     1    -3
##  2        1 big          1     1
##  3        1 charged      1    -3
##  4        1 charges      1    -2
##  5        1 crying       1    -2
##  6        1 death        1    -2
##  7        1 died         1    -3
##  8        1 felony       1    -3
##  9        1 fire         1    -2
## 10        1 fired        2    -2
## # ... with 31,655 more rows

ap_sentiments_nrc <- tidy_data %>%
  inner_join(get_sentiments("nrc"), by = c(term = "word"))
ap_sentiments_nrc

## # A tibble: 147,609 x 4
##    document term     count sentiment   
##       <int> <chr>    <dbl> <chr>       
##  1        1 assault      1 anger       
##  2        1 assault      1 fear        
##  3        1 assault      1 negative    
##  4        1 boy          4 disgust     
##  5        1 boy          4 negative    
##  6        1 building     1 positive    
##  7        1 church       1 anticipation
##  8        1 church       1 joy         
##  9        1 church       1 positive    
## 10        1 church       1 trust       
## # ... with 147,599 more rows
…
Use tidy() to turn the DFM into tidy format

inaug_td <- tidy(inaug_dfm)
inaug_td

## # A tibble: 44,710 x 3
##    document        term            count
##    <chr>           <chr>           <dbl>
##  1 1789-Washington fellow-citizens     1
##  2 1797-Adams      fellow-citizens     3
##  3 1801-Jefferson  fellow-citizens     2
##  4 1809-Madison    fellow-citizens     1
##  5 1813-Madison    fellow-citizens     1
##  6 1817-Monroe     fellow-citizens     5
##  7 1821-Monroe     fellow-citizens     1
##  8 1841-Harrison   fellow-citizens    11
##  9 1845-Polk       fellow-citizens     1
## 10 1849-Taylor     fellow-citizens     1
## # ... with 44,700 more rows

Now, we may perform tf_idf calculation to see the important words in each document.

inaug_tf_idf <- inaug_td %>%
  bind_tf_idf(term, document, count) %>%
  arrange(desc(tf_idf))

inaug_tf_idf

## # A tibble: 44,710 x 6
##    document        term        count      tf   idf tf_idf
##    <chr>           <chr>       <dbl>   <dbl> <dbl>  <dbl>
##  1 1793-Washington arrive          1 0.00680  4.06 0.0276
##  2 1793-Washington upbraidings     1 0.00680  4.06 0.0276
##  3 1793-Washington violated        1 0.00680  3.37 0.0229
##  4 1793-Washington willingly       1 0.00680  3.37 0.0229
##  5 1793-Washington incurring       1 0.00680  3.37 0.0229
##  6 1793-Washington previous        1 0.00680  2.96 0.0201
##  7 1793-Washington knowingly       1 0.00680  2.96 0.0201
##  8 1793-Washington injunctions     1 0.00680  2.96 0.0201
##  9 1793-Washington witnesses       1 0.00680  2.96 0.0201
## 10 1793-Washington besides         1 0.00680  2.67 0.0182
## # ... with 44,700 more rows
…
The plot shows the most common words for two topic, testing, Ottawa, covid-19 are in both topic. This is an advantage of topic modeling as opposed to hard clustering methods: topics used in natural language could have some overlap in terms of words.

As an alternative, we could consider the terms that had the greatest difference in

\(\) between topic 1 and topic 2. This can be estimated based on the log ratio of the two:\(log_2(\frac{\beta_2}{\beta_1})\) (a log ratio is useful because it makes the difference symmetrical).

beta_spread <- news_topics %>%
  mutate(topic = paste0("topic", topic)) %>%
  spread(topic, beta) %>%
  filter(topic1 > .008 | topic2 > .008) %>% # filter the relevant common words 
  mutate(log_ratio = log2(topic2 / topic1))

beta_spread

## # A tibble: 25 x 4
##    term          topic1   topic2 log_ratio
##    <chr>          <dbl>    <dbl>     <dbl>
##  1 19          1.42e- 2 2.37e- 2     0.745
##  2 assessment  9.43e- 3 1.82e- 3    -2.37 
##  3 canada      1.18e- 2 1.98e-33  -102.   
##  4 care        2.07e-31 1.28e- 2    95.6  
##  5 centre      1.18e- 2 4.50e-33  -101.   
##  6 close       1.33e-32 9.12e- 3    99.1  
##  7 coronavirus 9.43e- 3 7.14e-31   -93.4  
##  8 covid       1.42e- 2 2.37e- 2     0.745
##  9 day         9.43e- 3 7.30e- 3    -0.370
## 10 health      1.42e- 2 1.28e- 2    -0.148
## # ... with 15 more rows
…
file.create(empty_file <- tempfile())

## [1] TRUE

docs <- mallet.import(news_word$article, news_word$text, empty_file)

mallet_model <- MalletLDA(num.topics = 2)
mallet_model$loadDocuments(docs)
# mallet_model$train(100)

# word-topic pairs
tidy(mallet_model)

## # A tibble: 1,444 x 3
##    topic term             beta
##    <int> <chr>           <dbl>
##  1     1 some       0.000987  
##  2     2 some       0.0000103 
##  3     1 provinces  0.00196   
##  4     2 provinces  0.00104   
##  5     1 are        0.00490   
##  6     2 are        0.0164    
##  7     1 scrambling 0.00000977
##  8     2 scrambling 0.00104   
##  9     1 to         0.0323    
## 10     2 to         0.0277    
## # ... with 1,434 more rows
…
