Reading course notes
…
## # A tibble: 2 x 2
##    line text                                                               
##   <int> <chr>                                                              
## 1     1 TORONTO -- Ontarios daily COVID-19 case count has surpassed 200 f~
## 2     2 On Friday, provincial health officials logged 213 new patients inf~

Note that this output is a tibble data fram, it has a convenient print method, will not convert strings to factors, and does not user row names.

Now, we can convert this data frame into tidy format using unnest_tokens() function

text_df %>%
  unnest_tokens(word, text)

## # A tibble: 32 x 2
##     line word     
##    <int> <chr>    
##  1     1 toronto  
##  2     1 ontarios
##  3     1 daily    
##  4     1 covid    
##  5     1 19       
##  6     1 case     
##  7     1 count    
##  8     1 has      
##  9     1 surpassed
## 10     1 200      
## # ... with 22 more rows
…
news_df <- tibble(line = 1:15, text = news)

news_df <- news_df %>%
  unnest_tokens(word, text)

Now we have tokenized the news, we can manipulate it with tidy tools. Often we want to revmoe stop words which are not userful for an analysis. We may remove the stop words by using anti_join

news_df <- anti_join(news_df, stop_words, by = "word")

Then, we can use count() to find the most common words in this news article

news_df %>% count(word, sort = TRUE)

## # A tibble: 105 x 2
##    word          n
##    <chr>     <int>
##  1 19            6
##  2 covid         6
##  3 friday        6
##  4 patients      6
##  5 ontario       5
##  6 province      5
##  7 conducted     4
##  8 count         4
##  9 health        4
## 10 ontarios     4
## # ... with 95 more rows
…
news2_df <- tibble(line = 1, text = news2)

news2_df <- news2_df %>%
  unnest_tokens(word, text)

news2_df <- news2_df %>% 
  anti_join(stop_words)

## Joining, by = "word"

news2_df %>% count(word, sort = TRUE)

## # A tibble: 109 x 2
##    word           n
##    <chr>      <int>
##  1 confirmed      5
##  2 ontario        4
##  3 19             3
##  4 covid          3
##  5 day            3
##  6 elliott        3
##  7 health         3
##  8 infections     3
##  9 reported       3
## 10 reporting      3
## # ... with 99 more rows
…
nrc (from Saif Mohammad and Peter Turney)

All these lexicons are based on unigrams(single words).

In the AFINN package, the lexicon assigns each words with a score between -5 to 5, where negatives socres indicating negative sentiment and postive socres means the postive sentiment.

In the bing package, the lexicon also categorizes words in binary fashion but only postive and negative categories.

In the nrc package, the lexicon categorizes words into categories(e.g postive, negative, anger, disgust, fear, sadness) in a binary fashion.

Note: cite them when using these sentiment lexicon,

get_sentiments("afinn")

## # A tibble: 2,477 x 2
##    word       value
##    <chr>      <dbl>
##  1 abandon       -2
##  2 abandoned     -2
##  3 abandons      -2
##  4 abducted      -2
##  5 abduction     -2
##  6 abductions    -2
##  7 abhor         -3
##  8 abhorred      -3
##  9 abhorrent     -3
## 10 abhors        -3
## # ... with 2,467 more rows

get_sentiments("bing")

## # A tibble: 6,786 x 2
##    word        sentiment
##    <chr>       <chr>    
##  1 2-faces     negative 
##  2 abnormal    negative 
##  3 abolish     negative 
##  4 abominable  negative 
##  5 abominably  negative 
##  6 abominate   negative 
##  7 abomination negative 
##  8 abort       negative 
##  9 aborted     negative 
## 10 aborts      negative 
## # ... with 6,776 more rows

get_sentiments("nrc")

## # A tibble: 13,901 x 2
##    word        sentiment
##    <chr>       <chr>    
##  1 abacus      trust    
##  2 abandon     fear     
##  3 abandon     negative 
##  4 abandon     sadness  
##  5 abandoned   anger    
##  6 abandoned   fear     
##  7 abandoned   negative 
##  8 abandoned   sadness  
##  9 abandonment anger    
## 10 abandonment fear     
## # ... with 13,891 more rows
…
\[idf(term) = ln(\frac{n_{documents}}{n_{documents Containg Term}}) \]

3.1 Term frequency in Jane Austens novels

From pervious examples, I realized that my data set was too small for our model. I add few more article to my data set to run the examples.

We want to examine the term frequency We first tokenized our data, and check the most common used words in our data.

news_word <- news_word %>% 
  unnest_tokens(word, text) %>% 
  count(article, word, sort = TRUE)
news_word

## # A tibble: 954 x 3
##    article word      n
##      <int> <chr> <int>
##  1       3 the      51
##  2       1 the      42
##  3       3 of       38
##  4       3 to       35
##  5       3 and      32
##  6       1 to       25
##  7       3 in       25
##  8       1 of       21
##  9       1 and      18
## 10       3 have     18
## # ... with 944 more rows
…
## # A tibble: 3 x 2
##   article total
##     <int> <int>
## 1       1   728
## 2       2   144
## 3       3  1131

news_word <- left_join(news_word, total_words)

## Joining, by = "article"

news_word

## # A tibble: 954 x 4
##    article word      n total
##      <int> <chr> <int> <int>
##  1       3 the      51  1131
##  2       1 the      42   728
##  3       3 of       38  1131
##  4       3 to       35  1131
##  5       3 and      32  1131
##  6       1 to       25   728
##  7       3 in       25  1131
##  8       1 of       21   728
##  9       1 and      18   728
## 10       3 have     18  1131
## # ... with 944 more rows
…
All three article have very long tails to the right(extremely rare words). These plot exhibit similar distributions for our article and the book example used in our textbook, with many words that occur rarely and fewer words occur frequently.

3.2 Zipfs law

The distribution shown in 3.1 are typical in language. It is so common that given any corpus of natural language the relationship between the frequency that a word appears is inversely proportional to its rank. - This is the Zipfs law.

We can examine Zipfs law using our article data.

freq_by_rank <- news_word %>% 
  group_by(article) %>% 
  mutate(rank = row_number(), 
         `term frequency` = n/total)
freq_by_rank

## # A tibble: 954 x 6
## # Groups:   article [3]
##    article word      n total  rank `term frequency`
##      <int> <chr> <int> <int> <int>            <dbl>
##  1       3 the      51  1131     1           0.0451
##  2       1 the      42   728     1           0.0577
##  3       3 of       38  1131     2           0.0336
##  4       3 to       35  1131     3           0.0309
##  5       3 and      32  1131     4           0.0283
##  6       1 to       25   728     2           0.0343
##  7       3 in       25  1131     5           0.0221
##  8       1 of       21   728     3           0.0288
##  9       1 and      18   728     4           0.0247
## 10       3 have     18  1131     6           0.0159
## # ... with 944 more rows
…
3.3 The bind_tf_idf function

The idea of tf-idf is to find the important words in our document by decreasing the weight for common words and increase the weight for rare words. Calculating tf-idf to find important words but not too common.

news_word <- news_word %>% 
  bind_tf_idf(word, article, n)
news_word

## # A tibble: 954 x 7
##    article word      n total     tf   idf  tf_idf
##      <int> <chr> <int> <int>  <dbl> <dbl>   <dbl>
##  1       3 the      51  1131 0.0451 0     0      
##  2       1 the      42   728 0.0577 0     0      
##  3       3 of       38  1131 0.0336 0     0      
##  4       3 to       35  1131 0.0309 0.405 0.0125 
##  5       3 and      32  1131 0.0283 0     0      
##  6       1 to       25   728 0.0343 0.405 0.0139 
##  7       3 in       25  1131 0.0221 0     0      
##  8       1 of       21   728 0.0288 0     0      
##  9       1 and      18   728 0.0247 0     0      
## 10       3 have     18  1131 0.0159 0.405 0.00645
## # ... with 944 more rows
…
